{
  "name": "kata-1",
  "$schema": "../../node_modules/nx/schemas/project-schema.json",
  "sourceRoot": "apps/kata-1/src",
  "projectType": "library",
  "tags": [],
  "targets": {
    "build": {
      "executor": "@nx/vite:build",
      "outputs": ["{options.outputPath}"],
      "options": {
        "outputPath": "dist/apps/kata-1",
        "main": "apps/kata-1/src/index.ts",
        "tsConfig": "apps/kata-1/tsconfig.lib.json",
        "assets": []
      }
    }
  }
}
